simulation.log
# vsim -vopt work.alu_top -voptargs="+acc=npr" -assertdebug -l simulation.log -coverage -c -do "coverage save -onexit -assert -directive -cvg -codeAll coverage.ucdb; run -all; exit" 
# Start time: 23:19:57 on Jul 27,2025
# ** Note: (vsim-3813) Design is being optimized due to module recompilation...
# //  Questa Sim
# //  Version 10.6c linux Jul 25 2017
# //
# //  Copyright 1991-2017 Mentor Graphics Corporation
# //  All Rights Reserved.
# //
# //  QuestaSim and its associated documentation contain trade
# //  secrets and commercial or financial information that are the property of
# //  Mentor Graphics Corporation and are privileged, confidential,
# //  and exempt from disclosure under the Freedom of Information Act,
# //  5 U.S.C. Section 552. Furthermore, this information
# //  is prohibited from disclosure under the Trade Secrets Act,
# //  18 U.S.C. Section 1905.
# //
# Loading sv_std.std
# Loading work.alu_top_sv_unit(fast)
# Loading work.alu_top(fast)
# Loading work.alu_interface(fast)
# Loading work.ALU_DESIGN(fast)
# Loading work.alu_interface(fast)
# ** Warning: (vsim-3015) alu_top.sv(33): [PCDPC] - Port size (10) does not match connection size (16) for port 'RES'. The port definition is at: alu_design.v(1).
#    Time: 0 ns  Iteration: 0  Instance: /alu_top/duv File: alu_design.v
# coverage save -onexit -assert -directive -cvg -codeAll coverage.ucdb
#  run -all
# 	generator signals
#  Time: 0 , rst = 0 , ce = 0 , mode = 1 , cmd = 7 , inp_valid = 2, cin = 1 , opa = 11 , opb = 20
#  Time: 0 , res = 0 , oflow = 0 , cout = 0 , g = 0 , l = 0 , e = 0 , err = 0
# 
# 	generator signals
#  Time: 0 , rst = 0 , ce = 0 , mode = 1 , cmd = 8 , inp_valid = 3, cin = 1 , opa = 104 , opb = 117
#  Time: 0 , res = 0 , oflow = 0 , cout = 0 , g = 0 , l = 0 , e = 0 , err = 0
# 
# 	generator signals
#  Time: 0 , rst = 0 , ce = 0 , mode = 1 , cmd = 2 , inp_valid = 3, cin = 0 , opa = 234 , opb = 114
#  Time: 0 , res = 0 , oflow = 0 , cout = 0 , g = 0 , l = 0 , e = 0 , err = 0
# 
# 	generator signals
#  Time: 0 , rst = 0 , ce = 0 , mode = 1 , cmd = 0 , inp_valid = 3, cin = 0 , opa = 37 , opb = 105
#  Time: 0 , res = 0 , oflow = 0 , cout = 0 , g = 0 , l = 0 , e = 0 , err = 0
# 
# 	generator signals
#  Time: 0 , rst = 0 , ce = 0 , mode = 1 , cmd = 8 , inp_valid = 3, cin = 1 , opa = 100 , opb = 171
#  Time: 0 , res = 0 , oflow = 0 , cout = 0 , g = 0 , l = 0 , e = 0 , err = 0
# 
# 	generator signals
#  Time: 0 , rst = 0 , ce = 0 , mode = 0 , cmd = 13 , inp_valid = 3, cin = 1 , opa = 145 , opb = 53
#  Time: 0 , res = 0 , oflow = 0 , cout = 0 , g = 0 , l = 0 , e = 0 , err = 0
# 
# 	generator signals
#  Time: 0 , rst = 0 , ce = 0 , mode = 0 , cmd = 8 , inp_valid = 1, cin = 1 , opa = 145 , opb = 67
#  Time: 0 , res = 0 , oflow = 0 , cout = 0 , g = 0 , l = 0 , e = 0 , err = 0
# 
# 	generator signals
#  Time: 0 , rst = 0 , ce = 0 , mode = 1 , cmd = 4 , inp_valid = 1, cin = 0 , opa = 134 , opb = 78
#  Time: 0 , res = 0 , oflow = 0 , cout = 0 , g = 0 , l = 0 , e = 0 , err = 0
# 
# 	generator signals
#  Time: 0 , rst = 0 , ce = 0 , mode = 0 , cmd = 12 , inp_valid = 3, cin = 1 , opa = 228 , opb = 197
#  Time: 0 , res = 0 , oflow = 0 , cout = 0 , g = 0 , l = 0 , e = 0 , err = 0
# 
# 	generator signals
#  Time: 0 , rst = 0 , ce = 0 , mode = 1 , cmd = 7 , inp_valid = 2, cin = 0 , opa = 184 , opb = 202
#  Time: 0 , res = 0 , oflow = 0 , cout = 0 , g = 0 , l = 0 , e = 0 , err = 0
# 
# 	generator signals
#  Time: 0 , rst = 0 , ce = 0 , mode = 1 , cmd = 5 , inp_valid = 1, cin = 1 , opa = 64 , opb = 82
#  Time: 0 , res = 0 , oflow = 0 , cout = 0 , g = 0 , l = 0 , e = 0 , err = 0
# 
# 	generator signals
#  Time: 0 , rst = 0 , ce = 0 , mode = 1 , cmd = 9 , inp_valid = 3, cin = 1 , opa = 90 , opb = 178
#  Time: 0 , res = 0 , oflow = 0 , cout = 0 , g = 0 , l = 0 , e = 0 , err = 0
# 
# 	generator signals
#  Time: 0 , rst = 0 , ce = 0 , mode = 0 , cmd = 4 , inp_valid = 3, cin = 0 , opa = 190 , opb = 112
#  Time: 0 , res = 0 , oflow = 0 , cout = 0 , g = 0 , l = 0 , e = 0 , err = 0
# 
# 	generator signals
#  Time: 0 , rst = 0 , ce = 0 , mode = 0 , cmd = 6 , inp_valid = 1, cin = 1 , opa = 166 , opb = 180
#  Time: 0 , res = 0 , oflow = 0 , cout = 0 , g = 0 , l = 0 , e = 0 , err = 0
# 
# 	generator signals
#  Time: 0 , rst = 0 , ce = 0 , mode = 1 , cmd = 5 , inp_valid = 1, cin = 0 , opa = 17 , opb = 53
#  Time: 0 , res = 0 , oflow = 0 , cout = 0 , g = 0 , l = 0 , e = 0 , err = 0
# 
# 	generator signals
#  Time: 0 , rst = 0 , ce = 0 , mode = 1 , cmd = 9 , inp_valid = 3, cin = 1 , opa = 225 , opb = 12
#  Time: 0 , res = 0 , oflow = 0 , cout = 0 , g = 0 , l = 0 , e = 0 , err = 0
# 
# 	generator signals
#  Time: 0 , rst = 0 , ce = 0 , mode = 1 , cmd = 7 , inp_valid = 2, cin = 0 , opa = 25 , opb = 131
#  Time: 0 , res = 0 , oflow = 0 , cout = 0 , g = 0 , l = 0 , e = 0 , err = 0
# 
# 	generator signals
#  Time: 0 , rst = 0 , ce = 0 , mode = 1 , cmd = 4 , inp_valid = 1, cin = 1 , opa = 201 , opb = 19
#  Time: 0 , res = 0 , oflow = 0 , cout = 0 , g = 0 , l = 0 , e = 0 , err = 0
# 
# 	generator signals
#  Time: 0 , rst = 0 , ce = 0 , mode = 0 , cmd = 7 , inp_valid = 1, cin = 1 , opa = 179 , opb = 60
#  Time: 0 , res = 0 , oflow = 0 , cout = 0 , g = 0 , l = 0 , e = 0 , err = 0
# 
# 	generator signals
#  Time: 0 , rst = 0 , ce = 0 , mode = 0 , cmd = 9 , inp_valid = 1, cin = 0 , opa = 96 , opb = 141
#  Time: 0 , res = 0 , oflow = 0 , cout = 0 , g = 0 , l = 0 , e = 0 , err = 0
# 
# 	generator signals
#  Time: 0 , rst = 0 , ce = 0 , mode = 1 , cmd = 4 , inp_valid = 1, cin = 1 , opa = 234 , opb = 207
#  Time: 0 , res = 0 , oflow = 0 , cout = 0 , g = 0 , l = 0 , e = 0 , err = 0
# 
# 	generator signals
#  Time: 0 , rst = 0 , ce = 0 , mode = 1 , cmd = 8 , inp_valid = 3, cin = 1 , opa = 234 , opb = 45
#  Time: 0 , res = 0 , oflow = 0 , cout = 0 , g = 0 , l = 0 , e = 0 , err = 0
# 
# 	generator signals
#  Time: 0 , rst = 0 , ce = 0 , mode = 1 , cmd = 7 , inp_valid = 2, cin = 0 , opa = 207 , opb = 86
#  Time: 0 , res = 0 , oflow = 0 , cout = 0 , g = 0 , l = 0 , e = 0 , err = 0
# 
# 	generator signals
#  Time: 0 , rst = 0 , ce = 0 , mode = 1 , cmd = 7 , inp_valid = 2, cin = 0 , opa = 225 , opb = 234
#  Time: 0 , res = 0 , oflow = 0 , cout = 0 , g = 0 , l = 0 , e = 0 , err = 0
# 
# 	generator signals
#  Time: 0 , rst = 0 , ce = 0 , mode = 0 , cmd = 13 , inp_valid = 3, cin = 0 , opa = 178 , opb = 55
#  Time: 0 , res = 0 , oflow = 0 , cout = 0 , g = 0 , l = 0 , e = 0 , err = 0
# 
# 	generator signals
#  Time: 0 , rst = 0 , ce = 0 , mode = 0 , cmd = 6 , inp_valid = 1, cin = 1 , opa = 6 , opb = 132
#  Time: 0 , res = 0 , oflow = 0 , cout = 0 , g = 0 , l = 0 , e = 0 , err = 0
# 
# 	generator signals
#  Time: 0 , rst = 0 , ce = 0 , mode = 0 , cmd = 13 , inp_valid = 3, cin = 0 , opa = 247 , opb = 224
#  Time: 0 , res = 0 , oflow = 0 , cout = 0 , g = 0 , l = 0 , e = 0 , err = 0
# 
# 	generator signals
#  Time: 0 , rst = 0 , ce = 0 , mode = 0 , cmd = 7 , inp_valid = 1, cin = 1 , opa = 246 , opb = 80
#  Time: 0 , res = 0 , oflow = 0 , cout = 0 , g = 0 , l = 0 , e = 0 , err = 0
# 
# 	generator signals
#  Time: 0 , rst = 0 , ce = 0 , mode = 0 , cmd = 1 , inp_valid = 3, cin = 1 , opa = 45 , opb = 3
#  Time: 0 , res = 0 , oflow = 0 , cout = 0 , g = 0 , l = 0 , e = 0 , err = 0
# 
# 	generator signals
#  Time: 0 , rst = 0 , ce = 0 , mode = 1 , cmd = 1 , inp_valid = 3, cin = 1 , opa = 230 , opb = 152
#  Time: 0 , res = 0 , oflow = 0 , cout = 0 , g = 0 , l = 0 , e = 0 , err = 0
# 
# 	generator signals
#  Time: 0 , rst = 0 , ce = 0 , mode = 0 , cmd = 11 , inp_valid = 1, cin = 1 , opa = 125 , opb = 62
#  Time: 0 , res = 0 , oflow = 0 , cout = 0 , g = 0 , l = 0 , e = 0 , err = 0
# 
# 	generator signals
#  Time: 0 , rst = 0 , ce = 0 , mode = 1 , cmd = 7 , inp_valid = 2, cin = 0 , opa = 167 , opb = 46
#  Time: 0 , res = 0 , oflow = 0 , cout = 0 , g = 0 , l = 0 , e = 0 , err = 0
# 
# 	generator signals
#  Time: 0 , rst = 0 , ce = 0 , mode = 0 , cmd = 4 , inp_valid = 3, cin = 1 , opa = 64 , opb = 254
#  Time: 0 , res = 0 , oflow = 0 , cout = 0 , g = 0 , l = 0 , e = 0 , err = 0
# 
# 	generator signals
#  Time: 0 , rst = 0 , ce = 0 , mode = 1 , cmd = 5 , inp_valid = 1, cin = 0 , opa = 91 , opb = 78
#  Time: 0 , res = 0 , oflow = 0 , cout = 0 , g = 0 , l = 0 , e = 0 , err = 0
# 
# 	generator signals
#  Time: 0 , rst = 0 , ce = 0 , mode = 1 , cmd = 0 , inp_valid = 3, cin = 1 , opa = 64 , opb = 49
#  Time: 0 , res = 0 , oflow = 0 , cout = 0 , g = 0 , l = 0 , e = 0 , err = 0
# 
# 	generator signals
#  Time: 0 , rst = 0 , ce = 0 , mode = 1 , cmd = 4 , inp_valid = 1, cin = 0 , opa = 230 , opb = 57
#  Time: 0 , res = 0 , oflow = 0 , cout = 0 , g = 0 , l = 0 , e = 0 , err = 0
# 
# 	generator signals
#  Time: 0 , rst = 0 , ce = 0 , mode = 0 , cmd = 12 , inp_valid = 3, cin = 0 , opa = 153 , opb = 235
#  Time: 0 , res = 0 , oflow = 0 , cout = 0 , g = 0 , l = 0 , e = 0 , err = 0
# 
# 	generator signals
#  Time: 0 , rst = 0 , ce = 0 , mode = 0 , cmd = 7 , inp_valid = 1, cin = 1 , opa = 215 , opb = 8
#  Time: 0 , res = 0 , oflow = 0 , cout = 0 , g = 0 , l = 0 , e = 0 , err = 0
# 
# 	generator signals
#  Time: 0 , rst = 0 , ce = 0 , mode = 0 , cmd = 9 , inp_valid = 1, cin = 0 , opa = 21 , opb = 22
#  Time: 0 , res = 0 , oflow = 0 , cout = 0 , g = 0 , l = 0 , e = 0 , err = 0
# 
# 	generator signals
#  Time: 0 , rst = 0 , ce = 0 , mode = 0 , cmd = 11 , inp_valid = 1, cin = 0 , opa = 41 , opb = 179
#  Time: 0 , res = 0 , oflow = 0 , cout = 0 , g = 0 , l = 0 , e = 0 , err = 0
# 
# 	generator signals
#  Time: 0 , rst = 0 , ce = 0 , mode = 1 , cmd = 6 , inp_valid = 2, cin = 0 , opa = 34 , opb = 34
#  Time: 0 , res = 0 , oflow = 0 , cout = 0 , g = 0 , l = 0 , e = 0 , err = 0
# 
# 	generator signals
#  Time: 0 , rst = 0 , ce = 0 , mode = 1 , cmd = 4 , inp_valid = 1, cin = 1 , opa = 144 , opb = 133
#  Time: 0 , res = 0 , oflow = 0 , cout = 0 , g = 0 , l = 0 , e = 0 , err = 0
# 
# 	generator signals
#  Time: 0 , rst = 0 , ce = 0 , mode = 0 , cmd = 8 , inp_valid = 1, cin = 1 , opa = 86 , opb = 248
#  Time: 0 , res = 0 , oflow = 0 , cout = 0 , g = 0 , l = 0 , e = 0 , err = 0
# 
# 	generator signals
#  Time: 0 , rst = 0 , ce = 0 , mode = 1 , cmd = 6 , inp_valid = 2, cin = 1 , opa = 194 , opb = 85
#  Time: 0 , res = 0 , oflow = 0 , cout = 0 , g = 0 , l = 0 , e = 0 , err = 0
# 
# 	generator signals
#  Time: 0 , rst = 0 , ce = 0 , mode = 1 , cmd = 6 , inp_valid = 2, cin = 1 , opa = 196 , opb = 50
#  Time: 0 , res = 0 , oflow = 0 , cout = 0 , g = 0 , l = 0 , e = 0 , err = 0
# 
# 	generator signals
#  Time: 0 , rst = 0 , ce = 0 , mode = 1 , cmd = 7 , inp_valid = 2, cin = 0 , opa = 18 , opb = 45
#  Time: 0 , res = 0 , oflow = 0 , cout = 0 , g = 0 , l = 0 , e = 0 , err = 0
# 
# 	generator signals
#  Time: 0 , rst = 0 , ce = 0 , mode = 1 , cmd = 6 , inp_valid = 2, cin = 1 , opa = 208 , opb = 183
#  Time: 0 , res = 0 , oflow = 0 , cout = 0 , g = 0 , l = 0 , e = 0 , err = 0
# 
# 	generator signals
#  Time: 0 , rst = 0 , ce = 0 , mode = 1 , cmd = 7 , inp_valid = 2, cin = 0 , opa = 64 , opb = 40
#  Time: 0 , res = 0 , oflow = 0 , cout = 0 , g = 0 , l = 0 , e = 0 , err = 0
# 
# 	generator signals
#  Time: 0 , rst = 0 , ce = 0 , mode = 0 , cmd = 7 , inp_valid = 1, cin = 0 , opa = 86 , opb = 173
#  Time: 0 , res = 0 , oflow = 0 , cout = 0 , g = 0 , l = 0 , e = 0 , err = 0
# 
# 	generator signals
#  Time: 0 , rst = 0 , ce = 0 , mode = 1 , cmd = 6 , inp_valid = 2, cin = 1 , opa = 173 , opb = 205
#  Time: 0 , res = 0 , oflow = 0 , cout = 0 , g = 0 , l = 0 , e = 0 , err = 0
# 
# 	generator signals
#  Time: 0 , rst = 0 , ce = 0 , mode = 0 , cmd = 10 , inp_valid = 1, cin = 1 , opa = 88 , opb = 3
#  Time: 0 , res = 0 , oflow = 0 , cout = 0 , g = 0 , l = 0 , e = 0 , err = 0
# 
# 	generator signals
#  Time: 0 , rst = 0 , ce = 0 , mode = 0 , cmd = 2 , inp_valid = 3, cin = 0 , opa = 7 , opb = 197
#  Time: 0 , res = 0 , oflow = 0 , cout = 0 , g = 0 , l = 0 , e = 0 , err = 0
# 
# 	generator signals
#  Time: 0 , rst = 0 , ce = 0 , mode = 1 , cmd = 8 , inp_valid = 3, cin = 1 , opa = 28 , opb = 45
#  Time: 0 , res = 0 , oflow = 0 , cout = 0 , g = 0 , l = 0 , e = 0 , err = 0
# 
# 	generator signals
#  Time: 0 , rst = 0 , ce = 0 , mode = 1 , cmd = 4 , inp_valid = 1, cin = 1 , opa = 184 , opb = 5
#  Time: 0 , res = 0 , oflow = 0 , cout = 0 , g = 0 , l = 0 , e = 0 , err = 0
# 
# 	generator signals
#  Time: 0 , rst = 0 , ce = 0 , mode = 0 , cmd = 5 , inp_valid = 3, cin = 0 , opa = 119 , opb = 187
#  Time: 0 , res = 0 , oflow = 0 , cout = 0 , g = 0 , l = 0 , e = 0 , err = 0
# 
# 	generator signals
#  Time: 0 , rst = 0 , ce = 0 , mode = 0 , cmd = 0 , inp_valid = 3, cin = 0 , opa = 73 , opb = 169
#  Time: 0 , res = 0 , oflow = 0 , cout = 0 , g = 0 , l = 0 , e = 0 , err = 0
# 
# 	generator signals
#  Time: 0 , rst = 0 , ce = 0 , mode = 1 , cmd = 7 , inp_valid = 2, cin = 1 , opa = 43 , opb = 178
#  Time: 0 , res = 0 , oflow = 0 , cout = 0 , g = 0 , l = 0 , e = 0 , err = 0
# 
# 	generator signals
#  Time: 0 , rst = 0 , ce = 0 , mode = 0 , cmd = 10 , inp_valid = 1, cin = 0 , opa = 64 , opb = 157
#  Time: 0 , res = 0 , oflow = 0 , cout = 0 , g = 0 , l = 0 , e = 0 , err = 0
# 
# 	generator signals
#  Time: 0 , rst = 0 , ce = 0 , mode = 1 , cmd = 2 , inp_valid = 3, cin = 1 , opa = 116 , opb = 22
#  Time: 0 , res = 0 , oflow = 0 , cout = 0 , g = 0 , l = 0 , e = 0 , err = 0
# 
# 	generator signals
#  Time: 0 , rst = 0 , ce = 0 , mode = 1 , cmd = 10 , inp_valid = 3, cin = 0 , opa = 233 , opb = 76
#  Time: 0 , res = 0 , oflow = 0 , cout = 0 , g = 0 , l = 0 , e = 0 , err = 0
# 
# 	generator signals
#  Time: 0 , rst = 0 , ce = 0 , mode = 1 , cmd = 6 , inp_valid = 2, cin = 0 , opa = 69 , opb = 163
#  Time: 0 , res = 0 , oflow = 0 , cout = 0 , g = 0 , l = 0 , e = 0 , err = 0
# 
# 	generator signals
#  Time: 0 , rst = 0 , ce = 0 , mode = 0 , cmd = 5 , inp_valid = 3, cin = 0 , opa = 28 , opb = 221
#  Time: 0 , res = 0 , oflow = 0 , cout = 0 , g = 0 , l = 0 , e = 0 , err = 0
# 
# 	generator signals
#  Time: 0 , rst = 0 , ce = 0 , mode = 1 , cmd = 4 , inp_valid = 1, cin = 0 , opa = 192 , opb = 245
#  Time: 0 , res = 0 , oflow = 0 , cout = 0 , g = 0 , l = 0 , e = 0 , err = 0
# 
# 	generator signals
#  Time: 0 , rst = 0 , ce = 0 , mode = 1 , cmd = 5 , inp_valid = 1, cin = 1 , opa = 122 , opb = 88
#  Time: 0 , res = 0 , oflow = 0 , cout = 0 , g = 0 , l = 0 , e = 0 , err = 0
# 
# 	generator signals
#  Time: 0 , rst = 0 , ce = 0 , mode = 1 , cmd = 3 , inp_valid = 3, cin = 0 , opa = 104 , opb = 164
#  Time: 0 , res = 0 , oflow = 0 , cout = 0 , g = 0 , l = 0 , e = 0 , err = 0
# 
# 	generator signals
#  Time: 0 , rst = 0 , ce = 0 , mode = 0 , cmd = 7 , inp_valid = 1, cin = 0 , opa = 148 , opb = 182
#  Time: 0 , res = 0 , oflow = 0 , cout = 0 , g = 0 , l = 0 , e = 0 , err = 0
# 
# 	generator signals
#  Time: 0 , rst = 0 , ce = 0 , mode = 1 , cmd = 6 , inp_valid = 2, cin = 0 , opa = 21 , opb = 173
#  Time: 0 , res = 0 , oflow = 0 , cout = 0 , g = 0 , l = 0 , e = 0 , err = 0
# 
# 	generator signals
#  Time: 0 , rst = 0 , ce = 0 , mode = 0 , cmd = 9 , inp_valid = 1, cin = 0 , opa = 40 , opb = 82
#  Time: 0 , res = 0 , oflow = 0 , cout = 0 , g = 0 , l = 0 , e = 0 , err = 0
# 
# 	generator signals
#  Time: 0 , rst = 0 , ce = 0 , mode = 0 , cmd = 11 , inp_valid = 1, cin = 1 , opa = 89 , opb = 238
#  Time: 0 , res = 0 , oflow = 0 , cout = 0 , g = 0 , l = 0 , e = 0 , err = 0
# 
# 	generator signals
#  Time: 0 , rst = 0 , ce = 0 , mode = 0 , cmd = 11 , inp_valid = 1, cin = 0 , opa = 79 , opb = 174
#  Time: 0 , res = 0 , oflow = 0 , cout = 0 , g = 0 , l = 0 , e = 0 , err = 0
# 
# 	generator signals
#  Time: 0 , rst = 0 , ce = 0 , mode = 0 , cmd = 2 , inp_valid = 3, cin = 0 , opa = 189 , opb = 69
#  Time: 0 , res = 0 , oflow = 0 , cout = 0 , g = 0 , l = 0 , e = 0 , err = 0
# 
# 	generator signals
#  Time: 0 , rst = 0 , ce = 0 , mode = 1 , cmd = 6 , inp_valid = 2, cin = 1 , opa = 9 , opb = 154
#  Time: 0 , res = 0 , oflow = 0 , cout = 0 , g = 0 , l = 0 , e = 0 , err = 0
# 
# 	generator signals
#  Time: 0 , rst = 0 , ce = 0 , mode = 1 , cmd = 3 , inp_valid = 3, cin = 0 , opa = 166 , opb = 246
#  Time: 0 , res = 0 , oflow = 0 , cout = 0 , g = 0 , l = 0 , e = 0 , err = 0
# 
# 	generator signals
#  Time: 0 , rst = 0 , ce = 0 , mode = 1 , cmd = 3 , inp_valid = 3, cin = 1 , opa = 99 , opb = 47
#  Time: 0 , res = 0 , oflow = 0 , cout = 0 , g = 0 , l = 0 , e = 0 , err = 0
# 
# 	generator signals
#  Time: 0 , rst = 0 , ce = 0 , mode = 0 , cmd = 5 , inp_valid = 3, cin = 0 , opa = 18 , opb = 11
#  Time: 0 , res = 0 , oflow = 0 , cout = 0 , g = 0 , l = 0 , e = 0 , err = 0
# 
# 	generator signals
#  Time: 0 , rst = 0 , ce = 0 , mode = 0 , cmd = 2 , inp_valid = 3, cin = 0 , opa = 133 , opb = 244
#  Time: 0 , res = 0 , oflow = 0 , cout = 0 , g = 0 , l = 0 , e = 0 , err = 0
# 
# 	generator signals
#  Time: 0 , rst = 0 , ce = 0 , mode = 1 , cmd = 8 , inp_valid = 3, cin = 0 , opa = 51 , opb = 190
#  Time: 0 , res = 0 , oflow = 0 , cout = 0 , g = 0 , l = 0 , e = 0 , err = 0
# 
# 	generator signals
#  Time: 0 , rst = 0 , ce = 0 , mode = 1 , cmd = 0 , inp_valid = 3, cin = 0 , opa = 19 , opb = 176
#  Time: 0 , res = 0 , oflow = 0 , cout = 0 , g = 0 , l = 0 , e = 0 , err = 0
# 
# 	generator signals
#  Time: 0 , rst = 0 , ce = 0 , mode = 1 , cmd = 8 , inp_valid = 3, cin = 0 , opa = 29 , opb = 152
#  Time: 0 , res = 0 , oflow = 0 , cout = 0 , g = 0 , l = 0 , e = 0 , err = 0
# 
# 	generator signals
#  Time: 0 , rst = 0 , ce = 0 , mode = 0 , cmd = 9 , inp_valid = 1, cin = 0 , opa = 166 , opb = 166
#  Time: 0 , res = 0 , oflow = 0 , cout = 0 , g = 0 , l = 0 , e = 0 , err = 0
# 
# 	generator signals
#  Time: 0 , rst = 0 , ce = 0 , mode = 1 , cmd = 5 , inp_valid = 1, cin = 0 , opa = 109 , opb = 15
#  Time: 0 , res = 0 , oflow = 0 , cout = 0 , g = 0 , l = 0 , e = 0 , err = 0
# 
# 	generator signals
#  Time: 0 , rst = 0 , ce = 0 , mode = 0 , cmd = 13 , inp_valid = 3, cin = 0 , opa = 25 , opb = 80
#  Time: 0 , res = 0 , oflow = 0 , cout = 0 , g = 0 , l = 0 , e = 0 , err = 0
# 
# 	generator signals
#  Time: 0 , rst = 0 , ce = 0 , mode = 1 , cmd = 7 , inp_valid = 2, cin = 0 , opa = 17 , opb = 166
#  Time: 0 , res = 0 , oflow = 0 , cout = 0 , g = 0 , l = 0 , e = 0 , err = 0
# 
# 	generator signals
#  Time: 0 , rst = 0 , ce = 0 , mode = 1 , cmd = 6 , inp_valid = 2, cin = 1 , opa = 192 , opb = 95
#  Time: 0 , res = 0 , oflow = 0 , cout = 0 , g = 0 , l = 0 , e = 0 , err = 0
# 
# 	generator signals
#  Time: 0 , rst = 0 , ce = 0 , mode = 0 , cmd = 0 , inp_valid = 3, cin = 1 , opa = 141 , opb = 155
#  Time: 0 , res = 0 , oflow = 0 , cout = 0 , g = 0 , l = 0 , e = 0 , err = 0
# 
# 	generator signals
#  Time: 0 , rst = 0 , ce = 0 , mode = 1 , cmd = 4 , inp_valid = 1, cin = 0 , opa = 193 , opb = 244
#  Time: 0 , res = 0 , oflow = 0 , cout = 0 , g = 0 , l = 0 , e = 0 , err = 0
# 
# 	generator signals
#  Time: 0 , rst = 0 , ce = 0 , mode = 0 , cmd = 6 , inp_valid = 1, cin = 0 , opa = 116 , opb = 82
#  Time: 0 , res = 0 , oflow = 0 , cout = 0 , g = 0 , l = 0 , e = 0 , err = 0
# 
# 	generator signals
#  Time: 0 , rst = 0 , ce = 0 , mode = 1 , cmd = 3 , inp_valid = 3, cin = 0 , opa = 189 , opb = 64
#  Time: 0 , res = 0 , oflow = 0 , cout = 0 , g = 0 , l = 0 , e = 0 , err = 0
# 
# 	generator signals
#  Time: 0 , rst = 0 , ce = 0 , mode = 1 , cmd = 1 , inp_valid = 3, cin = 0 , opa = 161 , opb = 44
#  Time: 0 , res = 0 , oflow = 0 , cout = 0 , g = 0 , l = 0 , e = 0 , err = 0
# 
# 	generator signals
#  Time: 0 , rst = 0 , ce = 0 , mode = 0 , cmd = 9 , inp_valid = 1, cin = 0 , opa = 172 , opb = 245
#  Time: 0 , res = 0 , oflow = 0 , cout = 0 , g = 0 , l = 0 , e = 0 , err = 0
# 
# 	generator signals
#  Time: 0 , rst = 0 , ce = 0 , mode = 0 , cmd = 7 , inp_valid = 1, cin = 1 , opa = 230 , opb = 0
#  Time: 0 , res = 0 , oflow = 0 , cout = 0 , g = 0 , l = 0 , e = 0 , err = 0
# 
# 	generator signals
#  Time: 0 , rst = 0 , ce = 0 , mode = 1 , cmd = 5 , inp_valid = 1, cin = 0 , opa = 164 , opb = 125
#  Time: 0 , res = 0 , oflow = 0 , cout = 0 , g = 0 , l = 0 , e = 0 , err = 0
# 
# 	generator signals
#  Time: 0 , rst = 0 , ce = 0 , mode = 0 , cmd = 11 , inp_valid = 1, cin = 0 , opa = 126 , opb = 178
#  Time: 0 , res = 0 , oflow = 0 , cout = 0 , g = 0 , l = 0 , e = 0 , err = 0
# 
# 	generator signals
#  Time: 0 , rst = 0 , ce = 0 , mode = 1 , cmd = 0 , inp_valid = 3, cin = 0 , opa = 174 , opb = 95
#  Time: 0 , res = 0 , oflow = 0 , cout = 0 , g = 0 , l = 0 , e = 0 , err = 0
# 
# 	generator signals
#  Time: 0 , rst = 0 , ce = 0 , mode = 0 , cmd = 0 , inp_valid = 3, cin = 0 , opa = 65 , opb = 97
#  Time: 0 , res = 0 , oflow = 0 , cout = 0 , g = 0 , l = 0 , e = 0 , err = 0
# 
# 	generator signals
#  Time: 0 , rst = 0 , ce = 0 , mode = 0 , cmd = 6 , inp_valid = 1, cin = 1 , opa = 33 , opb = 196
#  Time: 0 , res = 0 , oflow = 0 , cout = 0 , g = 0 , l = 0 , e = 0 , err = 0
# 
# 	generator signals
#  Time: 0 , rst = 0 , ce = 0 , mode = 1 , cmd = 6 , inp_valid = 2, cin = 1 , opa = 246 , opb = 223
#  Time: 0 , res = 0 , oflow = 0 , cout = 0 , g = 0 , l = 0 , e = 0 , err = 0
# 
# 	generator signals
#  Time: 0 , rst = 0 , ce = 0 , mode = 1 , cmd = 8 , inp_valid = 3, cin = 1 , opa = 216 , opb = 12
#  Time: 0 , res = 0 , oflow = 0 , cout = 0 , g = 0 , l = 0 , e = 0 , err = 0
# 
# 	generator signals
#  Time: 0 , rst = 0 , ce = 0 , mode = 0 , cmd = 11 , inp_valid = 1, cin = 0 , opa = 208 , opb = 129
#  Time: 0 , res = 0 , oflow = 0 , cout = 0 , g = 0 , l = 0 , e = 0 , err = 0
# 
# 	generator signals
#  Time: 0 , rst = 0 , ce = 0 , mode = 0 , cmd = 1 , inp_valid = 3, cin = 1 , opa = 106 , opb = 124
#  Time: 0 , res = 0 , oflow = 0 , cout = 0 , g = 0 , l = 0 , e = 0 , err = 0
# 
# Enable = 1 Driving Signal
# 	Driving signals For Single Operand
#  Time: 50 , rst = 0 , ce = 0 , mode = 1 , cmd = 7 , inp_valid = 2, cin = 1 , opa = 11 , opb = 20
#  Time: 50 , res = 0 , oflow = 0 , cout = 0 , g = 0 , l = 0 , e = 0 , err = 0
# 
# INPUT FUNCTIONAL COVERAGE = 23
# 
# 	MONITOR STARTED
#  Time: 50 , rst = 0 , ce = 0 , mode = 0 , cmd = 0 , inp_valid = 0, cin = 0 , opa = 0 , opb = 0
#  Time: 50 , res = 0 , oflow = 0 , cout = 0 , g = 0 , l = 0 , e = 0 , err = 0
# 
# CE is activated
# MODE1 ACRIVATED
# DEC OPB ACTIVATED
# INP_VALID2 SELECTED
# res =    19 , oflow = 0
# 	MONITOR SIGNALS ENDED
#  Time: 90 , rst = 0 , ce = 0 , mode = 1 , cmd = 7 , inp_valid = 2, cin = 1 , opa = 11 , opb = 20
#  Time: 90 , res = 0 , oflow = 0 , cout = 0 , g = 0 , l = 0 , e = 0 , err = 0
# 
# 	REFERENCE SIGNALS 
#  Time: 90 , rst = 0 , ce = 0 , mode = 1 , cmd = 7 , inp_valid = 2, cin = 1 , opa = 11 , opb = 20
#  Time: 90 , res = 19 , oflow = 0 , cout = 0 , g = 0 , l = 0 , e = 0 , err = 0
# 
# 	scoreboard: monitor_signals
#  Time: 90 , rst = 0 , ce = 0 , mode = 1 , cmd = 7 , inp_valid = 2, cin = 1 , opa = 11 , opb = 20
#  Time: 90 , res = 0 , oflow = 0 , cout = 0 , g = 0 , l = 0 , e = 0 , err = 0
# 
# 	scorebord: reference_signals
#  Time: 90 , rst = 0 , ce = 0 , mode = 1 , cmd = 7 , inp_valid = 2, cin = 1 , opa = 11 , opb = 20
#  Time: 90 , res = 19 , oflow = 0 , cout = 0 , g = 0 , l = 0 , e = 0 , err = 0
# 
#  	 COMPARISION ON MON & SCB REPORT 
# NUMBER OF PACKET FAILED = 1
# AT                  130, driver ended
# Enable = 1 Driving Signal
# 	 Driving Signals For Two Operands
#  Time: 130 , rst = 0 , ce = 0 , mode = 1 , cmd = 8 , inp_valid = 3, cin = 1 , opa = 104 , opb = 117
#  Time: 130 , res = 0 , oflow = 0 , cout = 0 , g = 0 , l = 0 , e = 0 , err = 0
# 
# INPUT FUNCTIONAL COVERAGE = 27
# 
# 	Monitor delay
#  Time: 130 , rst = 0 , ce = 0 , mode = 1 , cmd = 7 , inp_valid = 2, cin = 1 , opa = 11 , opb = 20
