transcript
# vsim -c alu_top -do "run -all; quit" 
# Start time: 00:22:13 on Jul 30,2025
# ** Note: (vsim-3813) Design is being optimized due to module recompilation...
# //  Questa Sim
# //  Version 10.6c linux Jul 25 2017
# //
# //  Copyright 1991-2017 Mentor Graphics Corporation
# //  All Rights Reserved.
# //
# //  QuestaSim and its associated documentation contain trade
# //  secrets and commercial or financial information that are the property of
# //  Mentor Graphics Corporation and are privileged, confidential,
# //  and exempt from disclosure under the Freedom of Information Act,
# //  5 U.S.C. Section 552. Furthermore, this information
# //  is prohibited from disclosure under the Trade Secrets Act,
# //  18 U.S.C. Section 1905.
# //
# Loading sv_std.std
# Loading work.alu_top_sv_unit(fast)
# Loading work.alu_top(fast)
# Loading work.alu_interface(fast)
# run -all
# |||||||||||||||||||||||||||||||||||||||||||||||||||||||||||||||||||||||||||||||||||||||||||
# 	generator signals
#  Time: 0 , rst = 0 , ce = 0 , mode = 1 , cmd = 0 , inp_valid = 3, cin = 1 , opa = 11 , opb = 20
#  Time: 0 , res = 0 , oflow = 0 , cout = 0 , g = 0 , l = 0 , e = 0 , err = 0
# 
# |||||||||||||||||||||||||||||||||||||||||||||||||||||||||||||||||||||||||||||||||||||||||||
# |||||||||||||||||||||||||||||||||||||||||||||||||||||||||||||||||||||||||||||||||||||||||||
# 	generator signals
#  Time: 0 , rst = 0 , ce = 0 , mode = 1 , cmd = 0 , inp_valid = 3, cin = 1 , opa = 104 , opb = 117
#  Time: 0 , res = 0 , oflow = 0 , cout = 0 , g = 0 , l = 0 , e = 0 , err = 0
# 
# |||||||||||||||||||||||||||||||||||||||||||||||||||||||||||||||||||||||||||||||||||||||||||
# |||||||||||||||||||||||||||||||||||||||||||||||||||||||||||||||||||||||||||||||||||||||||||
# 	generator signals
#  Time: 0 , rst = 0 , ce = 0 , mode = 1 , cmd = 0 , inp_valid = 3, cin = 0 , opa = 234 , opb = 114
#  Time: 0 , res = 0 , oflow = 0 , cout = 0 , g = 0 , l = 0 , e = 0 , err = 0
# 
# |||||||||||||||||||||||||||||||||||||||||||||||||||||||||||||||||||||||||||||||||||||||||||
# |||||||||||||||||||||||||||||||||||||||||||||||||||||||||||||||||||||||||||||||||||||||||||
# 	generator signals
#  Time: 0 , rst = 0 , ce = 0 , mode = 1 , cmd = 0 , inp_valid = 3, cin = 0 , opa = 37 , opb = 105
#  Time: 0 , res = 0 , oflow = 0 , cout = 0 , g = 0 , l = 0 , e = 0 , err = 0
# 
# |||||||||||||||||||||||||||||||||||||||||||||||||||||||||||||||||||||||||||||||||||||||||||
# |||||||||||||||||||||||||||||||||||||||||||||||||||||||||||||||||||||||||||||||||||||||||||
# 	generator signals
#  Time: 0 , rst = 0 , ce = 0 , mode = 1 , cmd = 0 , inp_valid = 3, cin = 1 , opa = 100 , opb = 171
#  Time: 0 , res = 0 , oflow = 0 , cout = 0 , g = 0 , l = 0 , e = 0 , err = 0
# 
# |||||||||||||||||||||||||||||||||||||||||||||||||||||||||||||||||||||||||||||||||||||||||||
# |||||||||||||||||||||||||||||||||||||||||||||||||||||||||||||||||||||||||||||||||||||||||||
# 	MONITOR STARTED
#  Time: 50 , rst = 0 , ce = 0 , mode = 0 , cmd = 0 , inp_valid = 0, cin = 0 , opa = 0 , opb = 0
#  Time: 50 , res = 0 , oflow = 0 , cout = 0 , g = 0 , l = 0 , e = 0 , err = 0
# 
# |||||||||||||||||||||||||||||||||||||||||||||||||||||||||||||||||||||||||||||||||||||||||||
# Enable = 1 Driving Signal
# |||||||||||||||||||||||||||||||||||||||||||||||||||||||||||||||||||||||||||||||||||||||||||
# 	Driving Signals
#  Time: 70 , rst = 0 , ce = 0 , mode = 1 , cmd = 0 , inp_valid = 3, cin = 1 , opa = 11 , opb = 20
#  Time: 70 , res = 0 , oflow = 0 , cout = 0 , g = 0 , l = 0 , e = 0 , err = 0
# 
# |||||||||||||||||||||||||||||||||||||||||||||||||||||||||||||||||||||||||||||||||||||||||||
# |||||||||||||||||||||||||||||||||||||||||||||||||||||||||||||||||||||||||||||||||||||||||||
# 	Driving single opernad
#  Time: 70 , rst = 0 , ce = 0 , mode = 1 , cmd = 0 , inp_valid = 3, cin = 1 , opa = 11 , opb = 20
#  Time: 70 , res = 0 , oflow = 0 , cout = 0 , g = 0 , l = 0 , e = 0 , err = 0
# 
# |||||||||||||||||||||||||||||||||||||||||||||||||||||||||||||||||||||||||||||||||||||||||||
# reference_flag = 00000000000000000000000000000000
# |||||||||||||||||||||||||||||||||||||||||||||||||||||||||||||||||||||||||||||||||||||||||||
# 	MONITOR SIGNALS ENDED
#  Time: 90 , rst = 0 , ce = 0 , mode = 1 , cmd = 0 , inp_valid = 3, cin = 1 , opa = 11 , opb = 20
#  Time: 90 , res = 0 , oflow = 0 , cout = 0 , g = 0 , l = 0 , e = 0 , err = 1
# 
# |||||||||||||||||||||||||||||||||||||||||||||||||||||||||||||||||||||||||||||||||||||||||||
# CE is activated
# MODE1 ACRIVATED
# |||||||||||||||||||||||||||||||||||||||||||||||||||||||||||||||||||||||||||||||||||||||||||
# 	scoreboard: monitor_signals
#  Time: 90 , rst = 0 , ce = 0 , mode = 1 , cmd = 0 , inp_valid = 3, cin = 1 , opa = 11 , opb = 20
#  Time: 90 , res = 0 , oflow = 0 , cout = 0 , g = 0 , l = 0 , e = 0 , err = 1
# 
# |||||||||||||||||||||||||||||||||||||||||||||||||||||||||||||||||||||||||||||||||||||||||||
# |||||||||||||||||||||||||||||||||||||||||||||||||||||||||||||||||||||||||||||||||||||||||||
# 	REFERENCE SIGNALS 
#  Time: 110 , rst = 0 , ce = 0 , mode = 1 , cmd = 0 , inp_valid = 3, cin = 1 , opa = 11 , opb = 20
#  Time: 110 , res = 31 , oflow = 0 , cout = 0 , g = 0 , l = 0 , e = 0 , err = 0
# 
# |||||||||||||||||||||||||||||||||||||||||||||||||||||||||||||||||||||||||||||||||||||||||||
# |||||||||||||||||||||||||||||||||||||||||||||||||||||||||||||||||||||||||||||||||||||||||||
# 	scorebord: reference_signals
#  Time: 110 , rst = 0 , ce = 0 , mode = 1 , cmd = 0 , inp_valid = 3, cin = 1 , opa = 11 , opb = 20
#  Time: 110 , res = 31 , oflow = 0 , cout = 0 , g = 0 , l = 0 , e = 0 , err = 0
# 
# |||||||||||||||||||||||||||||||||||||||||||||||||||||||||||||||||||||||||||||||||||||||||||
#  	 COMPARISION ON MON & SCB REPORT 
# NUMBER OF PACKET FAILED = 1
# |||||||||||||||||||||||||||||||||||||||||||||||||||||||||||||||||||||||||||||||||||||||||||
# 	Monitor delay
#  Time: 130 , rst = 0 , ce = 0 , mode = 1 , cmd = 0 , inp_valid = 3, cin = 1 , opa = 11 , opb = 20
#  Time: 130 , res = 0 , oflow = 0 , cout = 0 , g = 0 , l = 0 , e = 0 , err = 1
# 
# |||||||||||||||||||||||||||||||||||||||||||||||||||||||||||||||||||||||||||||||||||||||||||
# |||||||||||||||||||||||||||||||||||||||||||||||||||||||||||||||||||||||||||||||||||||||||||
# 	MONITOR STARTED
#  Time: 130 , rst = 0 , ce = 0 , mode = 0 , cmd = 0 , inp_valid = 0, cin = 0 , opa = 0 , opb = 0
#  Time: 130 , res = 0 , oflow = 0 , cout = 0 , g = 0 , l = 0 , e = 0 , err = 0
# 
# |||||||||||||||||||||||||||||||||||||||||||||||||||||||||||||||||||||||||||||||||||||||||||
# Enable = 1 Driving Signal
# |||||||||||||||||||||||||||||||||||||||||||||||||||||||||||||||||||||||||||||||||||||||||||
# 	Driving Signals
#  Time: 170 , rst = 0 , ce = 0 , mode = 1 , cmd = 0 , inp_valid = 3, cin = 1 , opa = 104 , opb = 117
#  Time: 170 , res = 0 , oflow = 0 , cout = 0 , g = 0 , l = 0 , e = 0 , err = 0
# 
# |||||||||||||||||||||||||||||||||||||||||||||||||||||||||||||||||||||||||||||||||||||||||||
# |||||||||||||||||||||||||||||||||||||||||||||||||||||||||||||||||||||||||||||||||||||||||||
# 	Driving single opernad
#  Time: 170 , rst = 0 , ce = 0 , mode = 1 , cmd = 0 , inp_valid = 3, cin = 1 , opa = 104 , opb = 117
#  Time: 170 , res = 0 , oflow = 0 , cout = 0 , g = 0 , l = 0 , e = 0 , err = 0
# 
# |||||||||||||||||||||||||||||||||||||||||||||||||||||||||||||||||||||||||||||||||||||||||||
# |||||||||||||||||||||||||||||||||||||||||||||||||||||||||||||||||||||||||||||||||||||||||||
# 	MONITOR SIGNALS ENDED
#  Time: 170 , rst = 0 , ce = 0 , mode = 1 , cmd = 0 , inp_valid = 3, cin = 1 , opa = 11 , opb = 20
#  Time: 170 , res = 31 , oflow = 0 , cout = 0 , g = 0 , l = 0 , e = 0 , err = 0
# 
# |||||||||||||||||||||||||||||||||||||||||||||||||||||||||||||||||||||||||||||||||||||||||||
# reference_flag = 00000000000000000000000000000000
# |||||||||||||||||||||||||||||||||||||||||||||||||||||||||||||||||||||||||||||||||||||||||||
# 	scoreboard: monitor_signals
#  Time: 170 , rst = 0 , ce = 0 , mode = 1 , cmd = 0 , inp_valid = 3, cin = 1 , opa = 11 , opb = 20
#  Time: 170 , res = 31 , oflow = 0 , cout = 0 , g = 0 , l = 0 , e = 0 , err = 0
# 
# |||||||||||||||||||||||||||||||||||||||||||||||||||||||||||||||||||||||||||||||||||||||||||
# CE is activated
# MODE1 ACRIVATED
# |||||||||||||||||||||||||||||||||||||||||||||||||||||||||||||||||||||||||||||||||||||||||||
# 	Monitor delay
#  Time: 210 , rst = 0 , ce = 0 , mode = 1 , cmd = 0 , inp_valid = 3, cin = 1 , opa = 11 , opb = 20
#  Time: 210 , res = 31 , oflow = 0 , cout = 0 , g = 0 , l = 0 , e = 0 , err = 0
# 
# |||||||||||||||||||||||||||||||||||||||||||||||||||||||||||||||||||||||||||||||||||||||||||
# |||||||||||||||||||||||||||||||||||||||||||||||||||||||||||||||||||||||||||||||||||||||||||
# 	MONITOR STARTED
#  Time: 210 , rst = 0 , ce = 0 , mode = 0 , cmd = 0 , inp_valid = 0, cin = 0 , opa = 0 , opb = 0
#  Time: 210 , res = 0 , oflow = 0 , cout = 0 , g = 0 , l = 0 , e = 0 , err = 0
# 
# |||||||||||||||||||||||||||||||||||||||||||||||||||||||||||||||||||||||||||||||||||||||||||
# |||||||||||||||||||||||||||||||||||||||||||||||||||||||||||||||||||||||||||||||||||||||||||
# 	REFERENCE SIGNALS 
#  Time: 210 , rst = 0 , ce = 0 , mode = 1 , cmd = 0 , inp_valid = 3, cin = 1 , opa = 104 , opb = 117
#  Time: 210 , res = 221 , oflow = 0 , cout = 0 , g = 0 , l = 0 , e = 0 , err = 0
# 
# |||||||||||||||||||||||||||||||||||||||||||||||||||||||||||||||||||||||||||||||||||||||||||
# |||||||||||||||||||||||||||||||||||||||||||||||||||||||||||||||||||||||||||||||||||||||||||
# 	scorebord: reference_signals
#  Time: 210 , rst = 0 , ce = 0 , mode = 1 , cmd = 0 , inp_valid = 3, cin = 1 , opa = 104 , opb = 117
#  Time: 210 , res = 221 , oflow = 0 , cout = 0 , g = 0 , l = 0 , e = 0 , err = 0
# 
# |||||||||||||||||||||||||||||||||||||||||||||||||||||||||||||||||||||||||||||||||||||||||||
#  	 COMPARISION ON MON & SCB REPORT 
# NUMBER OF PACKET FAILED = 2
# |||||||||||||||||||||||||||||||||||||||||||||||||||||||||||||||||||||||||||||||||||||||||||
# 	MONITOR SIGNALS ENDED
#  Time: 250 , rst = 0 , ce = 0 , mode = 1 , cmd = 0 , inp_valid = 3, cin = 1 , opa = 104 , opb = 117
#  Time: 250 , res = 221 , oflow = 0 , cout = 0 , g = 0 , l = 0 , e = 0 , err = 0
# 
# |||||||||||||||||||||||||||||||||||||||||||||||||||||||||||||||||||||||||||||||||||||||||||
# |||||||||||||||||||||||||||||||||||||||||||||||||||||||||||||||||||||||||||||||||||||||||||
# 	scoreboard: monitor_signals
#  Time: 250 , rst = 0 , ce = 0 , mode = 1 , cmd = 0 , inp_valid = 3, cin = 1 , opa = 104 , opb = 117
#  Time: 250 , res = 221 , oflow = 0 , cout = 0 , g = 0 , l = 0 , e = 0 , err = 0
# 
# |||||||||||||||||||||||||||||||||||||||||||||||||||||||||||||||||||||||||||||||||||||||||||
# Enable = 1 Driving Signal
# |||||||||||||||||||||||||||||||||||||||||||||||||||||||||||||||||||||||||||||||||||||||||||
# 	Driving Signals
#  Time: 270 , rst = 0 , ce = 0 , mode = 1 , cmd = 0 , inp_valid = 3, cin = 0 , opa = 234 , opb = 114
#  Time: 270 , res = 0 , oflow = 0 , cout = 0 , g = 0 , l = 0 , e = 0 , err = 0
# 
# |||||||||||||||||||||||||||||||||||||||||||||||||||||||||||||||||||||||||||||||||||||||||||
# |||||||||||||||||||||||||||||||||||||||||||||||||||||||||||||||||||||||||||||||||||||||||||
# 	Driving single opernad
#  Time: 270 , rst = 0 , ce = 0 , mode = 1 , cmd = 0 , inp_valid = 3, cin = 0 , opa = 234 , opb = 114
#  Time: 270 , res = 0 , oflow = 0 , cout = 0 , g = 0 , l = 0 , e = 0 , err = 0
# 
# |||||||||||||||||||||||||||||||||||||||||||||||||||||||||||||||||||||||||||||||||||||||||||
# reference_flag = 00000000000000000000000000000000
# |||||||||||||||||||||||||||||||||||||||||||||||||||||||||||||||||||||||||||||||||||||||||||
# 	Monitor delay
#  Time: 290 , rst = 0 , ce = 0 , mode = 1 , cmd = 0 , inp_valid = 3, cin = 1 , opa = 104 , opb = 117
#  Time: 290 , res = 221 , oflow = 0 , cout = 0 , g = 0 , l = 0 , e = 0 , err = 0
# 
# |||||||||||||||||||||||||||||||||||||||||||||||||||||||||||||||||||||||||||||||||||||||||||
# |||||||||||||||||||||||||||||||||||||||||||||||||||||||||||||||||||||||||||||||||||||||||||
# 	MONITOR STARTED
#  Time: 290 , rst = 0 , ce = 0 , mode = 0 , cmd = 0 , inp_valid = 0, cin = 0 , opa = 0 , opb = 0
#  Time: 290 , res = 0 , oflow = 0 , cout = 0 , g = 0 , l = 0 , e = 0 , err = 0
# 
# |||||||||||||||||||||||||||||||||||||||||||||||||||||||||||||||||||||||||||||||||||||||||||
# CE is activated
# MODE1 ACRIVATED
# |||||||||||||||||||||||||||||||||||||||||||||||||||||||||||||||||||||||||||||||||||||||||||
# 	REFERENCE SIGNALS 
#  Time: 310 , rst = 0 , ce = 0 , mode = 1 , cmd = 0 , inp_valid = 3, cin = 0 , opa = 234 , opb = 114
#  Time: 310 , res = 348 , oflow = 0 , cout = 1 , g = 0 , l = 0 , e = 0 , err = 0
# 
# |||||||||||||||||||||||||||||||||||||||||||||||||||||||||||||||||||||||||||||||||||||||||||
# |||||||||||||||||||||||||||||||||||||||||||||||||||||||||||||||||||||||||||||||||||||||||||
# 	scorebord: reference_signals
#  Time: 310 , rst = 0 , ce = 0 , mode = 1 , cmd = 0 , inp_valid = 3, cin = 0 , opa = 234 , opb = 114
#  Time: 310 , res = 348 , oflow = 0 , cout = 1 , g = 0 , l = 0 , e = 0 , err = 0
# 
# |||||||||||||||||||||||||||||||||||||||||||||||||||||||||||||||||||||||||||||||||||||||||||
#  	 COMPARISION ON MON & SCB REPORT 
# NUMBER OF PACKET FAILED = 3
# |||||||||||||||||||||||||||||||||||||||||||||||||||||||||||||||||||||||||||||||||||||||||||
# 	MONITOR SIGNALS ENDED
#  Time: 330 , rst = 0 , ce = 0 , mode = 1 , cmd = 0 , inp_valid = 3, cin = 0 , opa = 234 , opb = 114
#  Time: 330 , res = 348 , oflow = 0 , cout = 1 , g = 0 , l = 0 , e = 0 , err = 0
# 
# |||||||||||||||||||||||||||||||||||||||||||||||||||||||||||||||||||||||||||||||||||||||||||
# |||||||||||||||||||||||||||||||||||||||||||||||||||||||||||||||||||||||||||||||||||||||||||
# 	scoreboard: monitor_signals
#  Time: 330 , rst = 0 , ce = 0 , mode = 1 , cmd = 0 , inp_valid = 3, cin = 0 , opa = 234 , opb = 114
#  Time: 330 , res = 348 , oflow = 0 , cout = 1 , g = 0 , l = 0 , e = 0 , err = 0
# 
# |||||||||||||||||||||||||||||||||||||||||||||||||||||||||||||||||||||||||||||||||||||||||||
# Enable = 1 Driving Signal
# |||||||||||||||||||||||||||||||||||||||||||||||||||||||||||||||||||||||||||||||||||||||||||
# 	Driving Signals
#  Time: 370 , rst = 0 , ce = 0 , mode = 1 , cmd = 0 , inp_valid = 3, cin = 0 , opa = 37 , opb = 105
#  Time: 370 , res = 0 , oflow = 0 , cout = 0 , g = 0 , l = 0 , e = 0 , err = 0
# 
# |||||||||||||||||||||||||||||||||||||||||||||||||||||||||||||||||||||||||||||||||||||||||||
# |||||||||||||||||||||||||||||||||||||||||||||||||||||||||||||||||||||||||||||||||||||||||||
# 	Driving single opernad
#  Time: 370 , rst = 0 , ce = 0 , mode = 1 , cmd = 0 , inp_valid = 3, cin = 0 , opa = 37 , opb = 105
#  Time: 370 , res = 0 , oflow = 0 , cout = 0 , g = 0 , l = 0 , e = 0 , err = 0
# 
# |||||||||||||||||||||||||||||||||||||||||||||||||||||||||||||||||||||||||||||||||||||||||||
# |||||||||||||||||||||||||||||||||||||||||||||||||||||||||||||||||||||||||||||||||||||||||||
# 	Monitor delay
#  Time: 370 , rst = 0 , ce = 0 , mode = 1 , cmd = 0 , inp_valid = 3, cin = 0 , opa = 234 , opb = 114
#  Time: 370 , res = 348 , oflow = 0 , cout = 1 , g = 0 , l = 0 , e = 0 , err = 0
# 
# |||||||||||||||||||||||||||||||||||||||||||||||||||||||||||||||||||||||||||||||||||||||||||
# |||||||||||||||||||||||||||||||||||||||||||||||||||||||||||||||||||||||||||||||||||||||||||
# 	MONITOR STARTED
#  Time: 370 , rst = 0 , ce = 0 , mode = 0 , cmd = 0 , inp_valid = 0, cin = 0 , opa = 0 , opb = 0
#  Time: 370 , res = 0 , oflow = 0 , cout = 0 , g = 0 , l = 0 , e = 0 , err = 0
# 
# |||||||||||||||||||||||||||||||||||||||||||||||||||||||||||||||||||||||||||||||||||||||||||
# reference_flag = 00000000000000000000000000000000
# CE is activated
# MODE1 ACRIVATED
# |||||||||||||||||||||||||||||||||||||||||||||||||||||||||||||||||||||||||||||||||||||||||||
# 	MONITOR SIGNALS ENDED
#  Time: 410 , rst = 0 , ce = 0 , mode = 1 , cmd = 0 , inp_valid = 3, cin = 0 , opa = 37 , opb = 105
#  Time: 410 , res = 142 , oflow = 0 , cout = 0 , g = 0 , l = 0 , e = 0 , err = 0
# 
# |||||||||||||||||||||||||||||||||||||||||||||||||||||||||||||||||||||||||||||||||||||||||||
# |||||||||||||||||||||||||||||||||||||||||||||||||||||||||||||||||||||||||||||||||||||||||||
# 	REFERENCE SIGNALS 
#  Time: 410 , rst = 0 , ce = 0 , mode = 1 , cmd = 0 , inp_valid = 3, cin = 0 , opa = 37 , opb = 105
#  Time: 410 , res = 142 , oflow = 0 , cout = 0 , g = 0 , l = 0 , e = 0 , err = 0
# 
# |||||||||||||||||||||||||||||||||||||||||||||||||||||||||||||||||||||||||||||||||||||||||||
# |||||||||||||||||||||||||||||||||||||||||||||||||||||||||||||||||||||||||||||||||||||||||||
# 	scorebord: reference_signals
#  Time: 410 , rst = 0 , ce = 0 , mode = 1 , cmd = 0 , inp_valid = 3, cin = 0 , opa = 37 , opb = 105
#  Time: 410 , res = 142 , oflow = 0 , cout = 0 , g = 0 , l = 0 , e = 0 , err = 0
# 
# |||||||||||||||||||||||||||||||||||||||||||||||||||||||||||||||||||||||||||||||||||||||||||
#  	 COMPARISION ON MON & SCB REPORT 
# NUMBER OF PACKET FAILED = 4
# |||||||||||||||||||||||||||||||||||||||||||||||||||||||||||||||||||||||||||||||||||||||||||
# 	scoreboard: monitor_signals
#  Time: 410 , rst = 0 , ce = 0 , mode = 1 , cmd = 0 , inp_valid = 3, cin = 0 , opa = 37 , opb = 105
#  Time: 410 , res = 142 , oflow = 0 , cout = 0 , g = 0 , l = 0 , e = 0 , err = 0
# 
# |||||||||||||||||||||||||||||||||||||||||||||||||||||||||||||||||||||||||||||||||||||||||||
# |||||||||||||||||||||||||||||||||||||||||||||||||||||||||||||||||||||||||||||||||||||||||||
# 	Monitor delay
#  Time: 450 , rst = 0 , ce = 0 , mode = 1 , cmd = 0 , inp_valid = 3, cin = 0 , opa = 37 , opb = 105
#  Time: 450 , res = 142 , oflow = 0 , cout = 0 , g = 0 , l = 0 , e = 0 , err = 0
# 
# |||||||||||||||||||||||||||||||||||||||||||||||||||||||||||||||||||||||||||||||||||||||||||
# Enable = 1 Driving Signal
# |||||||||||||||||||||||||||||||||||||||||||||||||||||||||||||||||||||||||||||||||||||||||||
# 	Driving Signals
#  Time: 470 , rst = 0 , ce = 0 , mode = 1 , cmd = 0 , inp_valid = 3, cin = 1 , opa = 100 , opb = 171
#  Time: 470 , res = 0 , oflow = 0 , cout = 0 , g = 0 , l = 0 , e = 0 , err = 0
# 
# |||||||||||||||||||||||||||||||||||||||||||||||||||||||||||||||||||||||||||||||||||||||||||
# |||||||||||||||||||||||||||||||||||||||||||||||||||||||||||||||||||||||||||||||||||||||||||
# 	Driving single opernad
#  Time: 470 , rst = 0 , ce = 0 , mode = 1 , cmd = 0 , inp_valid = 3, cin = 1 , opa = 100 , opb = 171
#  Time: 470 , res = 0 , oflow = 0 , cout = 0 , g = 0 , l = 0 , e = 0 , err = 0
# 
# |||||||||||||||||||||||||||||||||||||||||||||||||||||||||||||||||||||||||||||||||||||||||||
# reference_flag = 00000000000000000000000000000000
# CE is activated
# MODE1 ACRIVATED
# |||||||||||||||||||||||||||||||||||||||||||||||||||||||||||||||||||||||||||||||||||||||||||
# 	REFERENCE SIGNALS 
#  Time: 510 , rst = 0 , ce = 0 , mode = 1 , cmd = 0 , inp_valid = 3, cin = 1 , opa = 100 , opb = 171
#  Time: 510 , res = 271 , oflow = 0 , cout = 1 , g = 0 , l = 0 , e = 0 , err = 0
# 
# |||||||||||||||||||||||||||||||||||||||||||||||||||||||||||||||||||||||||||||||||||||||||||
# |||||||||||||||||||||||||||||||||||||||||||||||||||||||||||||||||||||||||||||||||||||||||||
# 	scorebord: reference_signals
#  Time: 510 , rst = 0 , ce = 0 , mode = 1 , cmd = 0 , inp_valid = 3, cin = 1 , opa = 100 , opb = 171
#  Time: 510 , res = 271 , oflow = 0 , cout = 1 , g = 0 , l = 0 , e = 0 , err = 0
# 
# |||||||||||||||||||||||||||||||||||||||||||||||||||||||||||||||||||||||||||||||||||||||||||
#  	 COMPARISION ON MON & SCB REPORT 
# NUMBER OF PACKET FAILED = 5
# ** Note: $finish    : alu_top.sv(42)
#    Time: 550 ns  Iteration: 2  Instance: /alu_top
# End time: 00:22:14 on Jul 30,2025, Elapsed time: 0:00:01
# Errors: 0, Warnings: 0
